Home Runs in 1000 PA | graphswithcodeanddata
…
  dplyr::bind_rows(df_evt, df_ded, df_box)
}

Then, starting from the full and unedited data,

daybyday_primary_df = fix_daybyday(daybyday_original_df)

We can validate the process by checking career home runs,

## the wrong way - double counting
daybyday_original_df %>% group_by(person_key, season_phase) %>% summarise(hr=sum(B_HR)) %>% arrange(-hr)
# A tibble: 25,341 x 3
# Groups:   person_key [16,579]
   person_key season_phase    hr
   <chr>      <chr>        <int>
 1 ruthb101   R             1119
 2 foxxj101   R              993
 3 ott-m101   R              935
 4 gehrl101   R              912
 5 aaroh101   R              775
 6 willt103   R              766
 7 bondb001   R              762
 8 rodra001   R              696
 9 maysw101   R              682
10 dimaj101   R              674
# ... with 25,331 more rows

## the right way - single counting
daybyday_primary_df %>% 
  group_by(person_key, season_phase) %>% 
  summarise(hr=sum(B_HR)) %>% 
  arrange(-hr)

# A tibble: 25,341 x 3
# Groups:   person_key [16,579]
   person_key season_phase    hr
   <chr>      <chr>        <int>
 1 bondb001   R              762
 2 aaroh101   R              755
 3 ruthb101   R              714
 4 rodra001   R              696
 5 maysw101   R              660
 6 grifk002   R              630
 7 pujoa001   R              614
 8 thomj002   R              612
 9 sosas001   R              609
10 robif103   R              586
# ... with 25,331 more rows
…
How many total rows?

nrow(all_persons)
[1] 1172276

Which players had the greatest 1000 PA stretches?

all_persons %>% 
  group_by(person_key, nameFull) %>% 
  summarise(m=max(lag_diff, na.rm=TRUE)) %>% 
  arrange(-m)

# A tibble: 387 x 3
# Groups:   person_key [387]
   person_key nameFull             m
   <chr>      <chr>            <dbl>
 1 ruthb101   Babe Ruth           95
 2 gonzj002   Juan Gonzalez       82
 3 rodra001   Alex Rodriguez      82
 4 foxxj101   Jimmie Foxx         81
 5 howar001   Ryan Howard         80
 6 killh102   Harmon Killebrew    79
 7 kiner101   Ralph Kiner         79
 8 mantm101   Mickey Mantle       79
 9 grifk002   Ken Griffey         78
10 marir101   Roger Maris         78
# ... with 377 more rows
…
